module gitlab.com/go-emat/pdfcpu-mattex

go 1.16

require (
	github.com/hhrutter/lzw v0.0.0-20190829144645-6f07a24e8650
	github.com/hhrutter/tiff v0.0.0-20190829141212-736cae8d0bc7
	github.com/pkg/errors v0.9.1
	golang.org/x/image v0.0.0-20210220032944-ac19c3e999fb
	golang.org/x/text v0.3.6
	gopkg.in/yaml.v2 v2.4.0
)
